%YAML 1.1
%TAG !u! tag:unity3d.com,2011:
--- !u!1045 &1
EditorBuildSettings:
  m_ObjectHideFlags: 0
  serializedVersion: 2
  m_Scenes:
  - enabled: 1
    path: Assets/FIMS/Scenes/ReadyRoom.unity
    guid: 39b9cf72014299246b5eb4e427ca5669
  - enabled: 1
    path: Assets/Earth.unity
    guid: 87a7f13ebdb3d2240be61d79b6b6f3bc
